第 5 章 关联规则挖掘 | 数据科学学习笔记
…
去掉冗余的字段，如因为船票价格（Fare）与船舱等级相关（Pclass），故删去；

删掉一些不完整的记录，如年龄（Age）缺失的观测。

经过这些处理后，还有 712 条观测数据，每个观测有 7 个值。

library(dplyr)
titanic = titanic %>%
  select(-c(PassengerId, Name, Ticket, Cabin, Fare)) %>%
  mutate_if(is.character, list(~na_if(., ""))) %>% # 将空字符串替换为 NA
  filter(complete.cases(.))
titanic

## # A tibble: 712 × 7
##    Survived Pclass Sex      Age SibSp Parch Embarked
##       <dbl>  <dbl> <chr>  <dbl> <dbl> <dbl> <chr>   
##  1        0      3 male      22     1     0 S       
##  2        1      1 female    38     1     0 C       
##  3        1      3 female    26     0     0 S       
##  4        1      1 female    35     1     0 S       
##  5        0      3 male      35     0     0 S       
##  6        0      1 male      54     0     0 S       
##  7        0      3 male       2     3     1 S       
##  8        1      3 female    27     0     2 S       
##  9        1      2 female    14     1     0 C       
## 10        1      3 female     4     1     1 S       
## # … with 702 more rows
## # ℹ Use `print(n = ...)` to see more rows
…
lunch：参与的午餐计划

test preparation course：测验准备课程完成情况

math score：数学成绩

reading score：阅读成绩

writing score：写作成绩

file = xfun::magic_path("StudentsPerformance.csv")
studentPerformance = readr::read_csv(file)
studentPerformance

## # A tibble: 1,000 × 8
##    gender `race/ethnicity` parental leve…¹ lunch test …² math …³ readi…⁴ writi…⁵
##    <chr>  <chr>            <chr>           <chr> <chr>     <dbl>   <dbl>   <dbl>
##  1 female group B          bachelor's deg… stan… none         72      72      74
##  2 female group C          some college    stan… comple…      69      90      88
##  3 female group B          master's degree stan… none         90      95      93
##  4 male   group A          associate's de… free… none         47      57      44
##  5 male   group C          some college    stan… none         76      78      75
##  6 female group B          associate's de… stan… none         71      83      78
##  7 female group B          some college    stan… comple…      88      95      92
##  8 male   group B          some college    free… none         40      43      39
##  9 male   group D          high school     free… comple…      64      64      67
## 10 female group B          high school     free… none         38      60      50
## # … with 990 more rows, and abbreviated variable names
## #   ¹​`parental level of education`, ²​`test preparation course`, ³​`math score`,
## #   ⁴​`reading score`, ⁵​`writing score`
## # ℹ Use `print(n = ...)` to see more rows
…
