第 6 章 聚类分析 | 数据科学学习笔记
…
聚类分析是一种无监督数据挖掘方法，它基于观测之间的距离度量将观测分组。聚类分析可用于对客户进行细分，以便为细分客户群体指定针对性营销策略。

常用的聚类方法有： \(k\) 均值聚类法和层次聚类法。

6.1 商场客户聚类

ch5_mall.csv 数据集记录了一家商场的 200 位客户的信息。这里使用客户年龄（Age）、年收入（Annual Income）和消费得分（Spending Score）对客户进行聚类。

file = xfun::magic_path("ch5_mall.csv")
mall = readr::read_csv(file) %>%
  rename(Income = 4, Score = 5)
mall

## # A tibble: 200 × 5
##    CustomerID Gender   Age Income Score
##         <dbl> <chr>  <dbl>  <dbl> <dbl>
##  1          1 Male      19     15    39
##  2          2 Male      21     15    81
##  3          3 Female    20     16     6
##  4          4 Female    23     16    77
##  5          5 Female    31     17    40
##  6          6 Female    22     17    76
##  7          7 Female    35     18     6
##  8          8 Female    23     18    94
##  9          9 Male      64     19     3
## 10         10 Female    30     19    72
## # … with 190 more rows
## # ℹ Use `print(n = ...)` to see more rows
…
