第 7 章 线性模型和广义线性模型 | 数据科学学习笔记
…
condition：房屋整体状况的好坏，取值 1 - 5

grade：房屋等级，取值 1 - 13

sqft_above：除地下室以外的住房面积

yr_built：房屋建成年份（最早 1900，最晚 2015）

library(readr)
file = xfun::magic_path("ch6_house.csv")
house = read_csv(file)
house

## # A tibble: 21,613 × 10
##      price bedrooms bathr…¹ sqft_…² sqft_…³ floors condi…⁴ grade sqft_…⁵ yr_bu…⁶
##      <dbl>    <dbl>   <dbl>   <dbl>   <dbl>  <dbl>   <dbl> <dbl>   <dbl>   <dbl>
##  1  221900        3    1       1180    5650      1       3     7    1180    1955
##  2  538000        3    2.25    2570    7242      2       3     7    2170    1951
##  3  180000        2    1        770   10000      1       3     6     770    1933
##  4  604000        4    3       1960    5000      1       5     7    1050    1965
##  5  510000        3    2       1680    8080      1       3     8    1680    1987
##  6 1230000        4    4.5     5420  101930      1       3    11    3890    2001
##  7  257500        3    2.25    1715    6819      2       3     7    1715    1995
##  8  291850        3    1.5     1060    9711      1       3     7    1060    1963
##  9  229500        3    1       1780    7470      1       3     7    1050    1960
## 10  323000        3    2.5     1890    6560      2       3     7    1890    2003
## # … with 21,603 more rows, and abbreviated variable names ¹​bathrooms,
## #   ²​sqft_living, ³​sqft_lot, ⁴​condition, ⁵​sqft_above, ⁶​yr_built
## # ℹ Use `print(n = ...)` to see more rows
…
Insulin：餐后 2 h 的胰岛素水平

BMI：体重指数

DiabetesPredigreeFunction：糖尿病谱系功能

Age：年龄

Outcome：因变量，1 表示有糖尿病，0 表示不患病。

file = xfun::magic_path("ch6_diabetes.csv")
diabetes = read_csv(file)
diabetes

## # A tibble: 768 × 9
##    Pregnancies Glucose BloodPressure SkinT…¹ Insulin   BMI Diabe…²   Age Outcome
##          <dbl>   <dbl>         <dbl>   <dbl>   <dbl> <dbl>   <dbl> <dbl>   <dbl>
##  1           6     148            72      35       0  33.6   0.627    50       1
##  2           1      85            66      29       0  26.6   0.351    31       0
##  3           8     183            64       0       0  23.3   0.672    32       1
##  4           1      89            66      23      94  28.1   0.167    21       0
##  5           0     137            40      35     168  43.1   2.29     33       1
##  6           5     116            74       0       0  25.6   0.201    30       0
##  7           3      78            50      32      88  31     0.248    26       1
##  8          10     115             0       0       0  35.3   0.134    29       0
##  9           2     197            70      45     543  30.5   0.158    53       1
## 10           8     125            96       0       0   0     0.232    54       1
## # … with 758 more rows, and abbreviated variable names ¹​SkinThickness,
## #   ²​DiabetesPedigreeFunction
## # ℹ Use `print(n = ...)` to see more rows
…
