第 8 章 神经网络 | 数据科学学习笔记
…
density：密度

pH：酸碱度

sulphates：硫酸盐

alcohol：酒精度

quality：因变量，品质等级，取值 3 - 9。

file = xfun::magic_path("ch7_wine.csv")
wine = readr::read_csv(file)
wine

## # A tibble: 4,898 × 12
##    fixed…¹ volat…² citri…³ resid…⁴ chlor…⁵ free.…⁶ total…⁷ density    pH sulph…⁸
##      <dbl>   <dbl>   <dbl>   <dbl>   <dbl>   <dbl>   <dbl>   <dbl> <dbl>   <dbl>
##  1     7      0.27    0.36    20.7   0.045      45     170   1.00   3       0.45
##  2     6.3    0.3     0.34     1.6   0.049      14     132   0.994  3.3     0.49
##  3     8.1    0.28    0.4      6.9   0.05       30      97   0.995  3.26    0.44
##  4     7.2    0.23    0.32     8.5   0.058      47     186   0.996  3.19    0.4 
##  5     7.2    0.23    0.32     8.5   0.058      47     186   0.996  3.19    0.4 
##  6     8.1    0.28    0.4      6.9   0.05       30      97   0.995  3.26    0.44
##  7     6.2    0.32    0.16     7     0.045      30     136   0.995  3.18    0.47
##  8     7      0.27    0.36    20.7   0.045      45     170   1.00   3       0.45
##  9     6.3    0.3     0.34     1.6   0.049      14     132   0.994  3.3     0.49
## 10     8.1    0.22    0.43     1.5   0.044      28     129   0.994  3.22    0.45
## # … with 4,888 more rows, 2 more variables: alcohol <dbl>, quality <dbl>, and
## #   abbreviated variable names ¹​fixed.acidity, ²​volatile.acidity, ³​citric.acid,
## #   ⁴​residual.sugar, ⁵​chlorides, ⁶​free.sulfur.dioxide, ⁷​total.sulfur.dioxide,
## #   ⁸​sulphates
## # ℹ Use `print(n = ...)` to see more rows, and `colnames()` to see all variable names
…
